%YAML 1.1
%TAG !u! tag:unity3d.com,2011:
--- !u!29 &1
SceneSettings:
  m_ObjectHideFlags: 0
  m_PVSData: 
  m_PVSObjectsArray: []
  m_PVSPortalsArray: []
  m_OcclusionBakeSettings:
    smallestOccluder: 5
    smallestHole: 0.25
    backfaceThreshold: 100
--- !u!104 &2
RenderSettings:
  m_ObjectHideFlags: 0
  serializedVersion: 6
  m_Fog: 0
  m_FogColor: {r: 0.5, g: 0.5, b: 0.5, a: 1}
  m_FogMode: 3
  m_FogDensity: 0.01
  m_LinearFogStart: 0
  m_LinearFogEnd: 300
  m_AmbientSkyColor: {r: 0.2, g: 0.2, b: 0.2, a: 1}
  m_AmbientEquatorColor: {r: 0.2, g: 0.2, b: 0.2, a: 1}
  m_AmbientGroundColor: {r: 0.2, g: 0.2, b: 0.2, a: 1}
  m_AmbientIntensity: 1
  m_AmbientMode: 3
  m_SkyboxMaterial: {fileID: 0}
  m_HaloStrength: 0.5
  m_FlareStrength: 1
  m_FlareFadeSpeed: 3
  m_HaloTexture: {fileID: 0}
  m_SpotCookie: {fileID: 10001, guid: 0000000000000000e000000000000000, type: 0}
  m_DefaultReflectionMode: 0
  m_DefaultReflectionResolution: 128
  m_ReflectionBounces: 1
  m_ReflectionIntensity: 1
  m_CustomReflection: {fileID: 0}
  m_Sun: {fileID: 0}
--- !u!157 &4
LightmapSettings:
  m_ObjectHideFlags: 0
  serializedVersion: 6
  m_GIWorkflowMode: 1
  m_LightmapsMode: 1
  m_GISettings:
    serializedVersion: 2
    m_BounceScale: 1
    m_IndirectOutputScale: 1
    m_AlbedoBoost: 1
    m_TemporalCoherenceThreshold: 1
    m_EnvironmentLightingMode: 0
    m_EnableBakedLightmaps: 1
    m_EnableRealtimeLightmaps: 0
  m_LightmapEditorSettings:
    serializedVersion: 3
    m_Resolution: 1
    m_BakeResolution: 50
    m_TextureWidth: 1024
    m_TextureHeight: 1024
    m_AOMaxDistance: 1
    m_Padding: 2
    m_CompAOExponent: 0
    m_LightmapParameters: {fileID: 0}
    m_TextureCompression: 0
    m_FinalGather: 0
    m_FinalGatherRayCount: 1024
    m_ReflectionCompression: 2
  m_LightingDataAsset: {fileID: 0}
  m_RuntimeCPUUsage: 25
--- !u!196 &5
NavMeshSettings:
  serializedVersion: 2
  m_ObjectHideFlags: 0
  m_BuildSettings:
    serializedVersion: 2
    agentRadius: 0.5
    agentHeight: 2
    agentSlope: 45
    agentClimb: 0.4
    ledgeDropHeight: 0
    maxJumpAcrossDistance: 0
    accuratePlacement: 0
    minRegionArea: 2
    cellSize: 0.16666666
    manualCellSize: 0
  m_NavMeshData: {fileID: 0}
--- !u!1 &137773021
GameObject:
  m_ObjectHideFlags: 0
  m_PrefabParentObject: {fileID: 0}
  m_PrefabInternal: {fileID: 0}
  serializedVersion: 4
  m_Component:
  - 4: {fileID: 137773026}
  - 20: {fileID: 137773025}
  - 92: {fileID: 137773024}
  - 124: {fileID: 137773023}
  - 81: {fileID: 137773022}
  m_Layer: 0
  m_Name: Main Camera
  m_TagString: MainCamera
  m_Icon: {fileID: 0}
  m_NavMeshLayer: 0
  m_StaticEditorFlags: 0
  m_IsActive: 1
--- !u!81 &137773022
AudioListener:
  m_ObjectHideFlags: 0
  m_PrefabParentObject: {fileID: 0}
  m_PrefabInternal: {fileID: 0}
  m_GameObject: {fileID: 137773021}
  m_Enabled: 1
--- !u!124 &137773023
Behaviour:
  m_ObjectHideFlags: 0
  m_PrefabParentObject: {fileID: 0}
  m_PrefabInternal: {fileID: 0}
  m_GameObject: {fileID: 137773021}
  m_Enabled: 1
--- !u!92 &137773024
Behaviour:
  m_ObjectHideFlags: 0
  m_PrefabParentObject: {fileID: 0}
  m_PrefabInternal: {fileID: 0}
  m_GameObject: {fileID: 137773021}
  m_Enabled: 1
--- !u!20 &137773025
Camera:
  m_ObjectHideFlags: 0
  m_PrefabParentObject: {fileID: 0}
  m_PrefabInternal: {fileID: 0}
  m_GameObject: {fileID: 137773021}
  m_Enabled: 1
  serializedVersion: 2
  m_ClearFlags: 1
  m_BackGroundColor: {r: 0.19215687, g: 0.3019608, b: 0.4745098, a: 0.019607844}
  m_NormalizedViewPortRect:
    serializedVersion: 2
    x: 0
    y: 0
    width: 1
    height: 1
  near clip plane: 0.3
  far clip plane: 1000
  field of view: 60
  orthographic: 0
  orthographic size: 5
  m_Depth: -1
  m_CullingMask:
    serializedVersion: 2
    m_Bits: 4294967295
  m_RenderingPath: -1
  m_TargetTexture: {fileID: 0}
  m_TargetDisplay: 0
  m_TargetEye: 3
  m_HDR: 0
  m_OcclusionCulling: 1
  m_StereoConvergence: 10
  m_StereoSeparation: 0.022
  m_StereoMirrorMode: 0
--- !u!4 &137773026
Transform:
  m_ObjectHideFlags: 0
  m_PrefabParentObject: {fileID: 0}
  m_PrefabInternal: {fileID: 0}
  m_GameObject: {fileID: 137773021}
  m_LocalRotation: {x: 0, y: 0, z: 0, w: 1}
  m_LocalPosition: {x: 0, y: 1, z: -10}
  m_LocalScale: {x: 1, y: 1, z: 1}
  m_Children: []
  m_Father: {fileID: 0}
  m_RootOrder: 2
--- !u!1 &309799593
GameObject:
  m_ObjectHideFlags: 0
  m_PrefabParentObject: {fileID: 0}
  m_PrefabInternal: {fileID: 0}
  serializedVersion: 4
  m_Component:
  - 4: {fileID: 309799595}
  - 132: {fileID: 309799594}
  m_Layer: 0
  m_Name: GUI Text
  m_TagString: Untagged
  m_Icon: {fileID: 0}
  m_NavMeshLayer: 0
  m_StaticEditorFlags: 0
  m_IsActive: 1
--- !u!132 &309799594
GUIText:
  m_ObjectHideFlags: 0
  m_PrefabParentObject: {fileID: 0}
  m_PrefabInternal: {fileID: 0}
  m_GameObject: {fileID: 309799593}
  m_Enabled: 1
  serializedVersion: 3
  m_Text: Price
  m_Anchor: 0
  m_Alignment: 0
  m_PixelOffset: {x: 0, y: 0}
  m_LineSpacing: 1
  m_TabSize: 4
  m_Font: {fileID: 10102, guid: 0000000000000000e000000000000000, type: 0}
  m_Material: {fileID: 0}
  m_FontSize: 100
  m_FontStyle: 0
  m_Color:
    serializedVersion: 2
    rgba: 4294967295
  m_PixelCorrect: 1
  m_RichText: 1
--- !u!4 &309799595
Transform:
  m_ObjectHideFlags: 0
  m_PrefabParentObject: {fileID: 0}
  m_PrefabInternal: {fileID: 0}
  m_GameObject: {fileID: 309799593}
  m_LocalRotation: {x: 0, y: 0, z: 0, w: 1}
  m_LocalPosition: {x: 0.30829924, y: 0.5, z: 0}
  m_LocalScale: {x: 1, y: 1, z: 1}
  m_Children: []
  m_Father: {fileID: 0}
  m_RootOrder: 1
--- !u!1 &339446194
GameObject:
  m_ObjectHideFlags: 0
  m_PrefabParentObject: {fileID: 0}
  m_PrefabInternal: {fileID: 0}
  serializedVersion: 4
  m_Component:
  - 4: {fileID: 339446196}
  - 114: {fileID: 339446195}
  m_Layer: 0
  m_Name: Purchase
  m_TagString: Untagged
  m_Icon: {fileID: 0}
  m_NavMeshLayer: 0
  m_StaticEditorFlags: 0
  m_IsActive: 1
--- !u!114 &339446195
MonoBehaviour:
  m_ObjectHideFlags: 0
  m_PrefabParentObject: {fileID: 0}
  m_PrefabInternal: {fileID: 0}
  m_GameObject: {fileID: 339446194}
  m_Enabled: 1
  m_EditorHideFlags: 0
  m_Script: {fileID: 1384774831, guid: e743331561ef77147ae48cda9bcb8209, type: 3}
  m_Name: 
  m_EditorClassIdentifier: 
  fsm:
    usedInTemplate: {fileID: 0}
    name: 46534d
    startState: 53746174652031
    states:
    - name: 53746174652031
      description: 
      colorIndex: 0
      position:
        x: 50
        y: 100
        width: 100
        height: 32
      isBreakpoint: 0
      isSequence: 0
      hideUnused: 0
      transitions:
      - fsmEvent:
          name: 427574746f6e436c69636b
          isSystemEvent: 0
          isGlobal: 0
        toState: 50756561687365206974656d
        linkStyle: 0
        linkConstraint: 0
        colorIndex: 0
      actionData:
        actionNames:
        - 4875746f6e6747616d65732e506c61794d616b65722e416374696f6e732e475549427574746f6e
        customNames:
        - 
        actionEnabled:
        - 1
        actionIsOpen:
        - 1
        actionStartIndex: 00000000
        actionHashCodes: 4cc8fcef
        unityObjectParams: []
        fsmGameObjectParams: []
        fsmOwnerDefaultParams: []
        animationCurveParams: []
        functionCallParams: []
        fsmTemplateControlParams: []
        fsmEventTargetParams: []
        fsmPropertyParams: []
        layoutOptionParams: []
        fsmStringParams:
        - useVariable: 0
          name: 
          tooltip: 
          showInInspector: 0
          networkSync: 0
          value: 5075726368617365
        - useVariable: 0
          name: 
          tooltip: 
          showInInspector: 0
          networkSync: 0
          value: 
        - useVariable: 0
          name: 
          tooltip: 
          showInInspector: 0
          networkSync: 0
          value: 427574746f6e
        fsmObjectParams:
        - useVariable: 0
          name: 
          tooltip: 
          showInInspector: 0
          networkSync: 0
          typeName: 
          value: {fileID: 0}
        fsmVarParams: []
        byteData:
        - 66
        - 117
        - 116
        - 116
        - 111
        - 110
        - 67
        - 108
        - 105
        - 99
        - 107
        - 0
        - 1
        - 0
        - 0
        - 0
        - 0
        - 0
        - 0
        - 0
        - 0
        - 0
        - 0
        - 0
        - 0
        - 0
        - 0
        - 0
        - 0
        - 1
        - 0
        - 0
        - 0
        - 0
        - 0
        - 205
        - 204
        - 76
        - 62
        - 0
        - 154
        - 153
        - 153
        - 62
        - 0
        - 205
        - 204
        - 204
        - 61
        - 0
        - 1
        - 0
        arrayParamSizes: 
        arrayParamTypes: []
        customTypeSizes: 
        customTypeNames: []
        paramDataType: 1700000011000000210000001200000012000000120000001e0000000f0000000f0000000f0000000f00000011000000
        paramName:
        - 73656e644576656e74
        - 73746f7265427574746f6e5374617465
        - 696d616765
        - 74657874
        - 746f6f6c746970
        - 7374796c65
        - 73637265656e52656374
        - 6c656674
        - 746f70
        - 7769647468
        - 686569676874
        - 6e6f726d616c697a6564
        paramDataPos: 000000000b000000000000000000000001000000020000000d0000001e00000023000000280000002d00000032000000
        paramByteDataSize: 0b0000000200000000000000000000000000000000000000110000000500000005000000050000000500000002000000
    - name: 50756561687365206974656d
      description: 
      colorIndex: 0
      position:
        x: 410.0078
        y: 226.91406
        width: 122
        height: 48
      isBreakpoint: 0
      isSequence: 0
      hideUnused: 0
      transitions:
      - fsmEvent:
          name: 70756561736564
          isSystemEvent: 0
          isGlobal: 0
        toState: 50726f64757420496e666f2072657472697664
        linkStyle: 0
        linkConstraint: 0
        colorIndex: 0
      - fsmEvent:
          name: 707572736368617365206661696c6564
          isSystemEvent: 0
          isGlobal: 0
        toState: 53746174652031
        linkStyle: 0
        linkConstraint: 0
        colorIndex: 0
      actionData:
        actionNames:
        - 4875746f6e6747616d65732e506c61794d616b65722e416374696f6e732e414e5f5075726368617365416e64436f6e73756d65
        customNames:
        - 
        actionEnabled:
        - 1
        actionIsOpen:
        - 1
        actionStartIndex: 00000000
        actionHashCodes: 24bbc29a
        unityObjectParams: []
        fsmGameObjectParams: []
        fsmOwnerDefaultParams: []
        animationCurveParams: []
        functionCallParams: []
        fsmTemplateControlParams: []
        fsmEventTargetParams: []
        fsmPropertyParams: []
        layoutOptionParams: []
        fsmStringParams: []
        fsmObjectParams: []
        fsmVarParams: []
        byteData:
        - 112
        - 117
        - 101
        - 97
        - 115
        - 101
        - 100
        - 112
        - 117
        - 114
        - 115
        - 99
        - 104
        - 97
        - 115
        - 101
        - 32
        - 102
        - 97
        - 105
        - 108
        - 101
        - 100
        - 97
        - 110
        - 100
        - 114
        - 111
        - 105
        - 100
        - 46
        - 116
        - 101
        - 115
        - 116
        - 46
        - 112
        - 117
        - 114
        - 99
        - 104
        - 97
        - 115
        - 101
        - 100
        arrayParamSizes: 
        arrayParamTypes: []
        customTypeSizes: 
        customTypeNames: []
        paramDataType: 170000001700000003000000
        paramName:
        - 737563636573734576656e74
        - 6661696c4576656e74
        - 50726f647563744944
        paramDataPos: 000000000700000017000000
        paramByteDataSize: 070000001000000016000000
    - name: 50726f64757420496e666f2072657472697664
      description: 
      colorIndex: 0
      position:
        x: 74
        y: 362
        width: 135
        height: 32
      isBreakpoint: 0
      isSequence: 0
      hideUnused: 0
      transitions:
      - fsmEvent:
          name: 46494e4953484544
          isSystemEvent: 1
          isGlobal: 0
        toState: 53746174652031
        linkStyle: 0
        linkConstraint: 0
        colorIndex: 0
      actionData:
        actionNames:
        - 4875746f6e6747616d65732e506c61794d616b65722e416374696f6e732e53657447554954657874
        customNames:
        - 
        actionEnabled:
        - 1
        actionIsOpen:
        - 1
        actionStartIndex: 00000000
        actionHashCodes: ec086d87
        unityObjectParams: []
        fsmGameObjectParams: []
        fsmOwnerDefaultParams:
        - ownerOption: 1
          gameObject:
            useVariable: 0
            name: 
            tooltip: 
            showInInspector: 0
            networkSync: 0
            value: {fileID: 309799593}
        animationCurveParams: []
        functionCallParams: []
        fsmTemplateControlParams: []
        fsmEventTargetParams: []
        fsmPropertyParams: []
        layoutOptionParams: []
        fsmStringParams:
        - useVariable: 0
          name: 
          tooltip: 
          showInInspector: 0
          networkSync: 0
          value: 4a757374207075726173686564
        fsmObjectParams: []
        fsmVarParams: []
        byteData:
        - 0
        arrayParamSizes: 
        arrayParamTypes: []
        customTypeSizes: 
        customTypeNames: []
        paramDataType: 140000001200000001000000
        paramName:
        - 67616d654f626a656374
        - 74657874
        - 65766572794672616d65
        paramDataPos: 000000000000000000000000
        paramByteDataSize: 000000000000000001000000
    events:
    - name: 46494e4953484544
      isSystemEvent: 1
      isGlobal: 0
    - name: 427574746f6e436c69636b
      isSystemEvent: 0
      isGlobal: 0
    - name: 70756561736564
      isSystemEvent: 0
      isGlobal: 0
    - name: 707572736368617365206661696c6564
      isSystemEvent: 0
      isGlobal: 0
    globalTransitions: []
    variables:
      floatVariables: []
      intVariables: []
      boolVariables: []
      stringVariables:
      - useVariable: 1
        name: 50726f756374205072696365
        tooltip: 
        showInInspector: 0
        networkSync: 0
        value: 
      vector2Variables: []
      vector3Variables: []
      colorVariables: []
      rectVariables: []
      quaternionVariables: []
      gameObjectVariables: []
      objectVariables: []
      materialVariables: []
      textureVariables: []
    description: 
    docUrl: 
    showStateLabel: 1
    maxLoopCount: 0
    watermark: 
    version: 0
    ExposedEvents: []
    RestartOnEnable: 1
    EnableDebugFlow: 0
    StepFrame: 0
    activeStateName: 
  fsmTemplate: {fileID: 0}
--- !u!4 &339446196
Transform:
  m_ObjectHideFlags: 0
  m_PrefabParentObject: {fileID: 0}
  m_PrefabInternal: {fileID: 0}
  m_GameObject: {fileID: 339446194}
  m_LocalRotation: {x: 0, y: 0, z: 0, w: 1}
  m_LocalPosition: {x: -4.0520563, y: 3.8689783, z: 19.309948}
  m_LocalScale: {x: 1, y: 1, z: 1}
  m_Children: []
  m_Father: {fileID: 0}
  m_RootOrder: 4
--- !u!1 &458913133
GameObject:
  m_ObjectHideFlags: 0
  m_PrefabParentObject: {fileID: 0}
  m_PrefabInternal: {fileID: 0}
  serializedVersion: 4
  m_Component:
  - 4: {fileID: 458913135}
  - 114: {fileID: 458913134}
  m_Layer: 0
  m_Name: GameObject
  m_TagString: Untagged
  m_Icon: {fileID: 0}
  m_NavMeshLayer: 0
  m_StaticEditorFlags: 0
  m_IsActive: 1
--- !u!114 &458913134
MonoBehaviour:
  m_ObjectHideFlags: 0
  m_PrefabParentObject: {fileID: 0}
  m_PrefabInternal: {fileID: 0}
  m_GameObject: {fileID: 458913133}
  m_Enabled: 1
  m_EditorHideFlags: 0
  m_Script: {fileID: 1384774831, guid: e743331561ef77147ae48cda9bcb8209, type: 3}
  m_Name: 
  m_EditorClassIdentifier: 
  fsm:
    usedInTemplate: {fileID: 0}
    name: 46534d
    startState: 53746174652031
    states:
    - name: 53746174652031
      description: 
      colorIndex: 0
      position:
        x: 50
        y: 100
        width: 100
        height: 32
      isBreakpoint: 0
      isSequence: 0
      hideUnused: 0
      transitions:
      - fsmEvent:
          name: 427574746f6e436c69636b
          isSystemEvent: 0
          isGlobal: 0
        toState: 4f6e20436f6e6e656320436c69636b
        linkStyle: 0
        linkConstraint: 0
        colorIndex: 0
      actionData:
        actionNames:
        - 4875746f6e6747616d65732e506c61794d616b65722e416374696f6e732e475549427574746f6e
        customNames:
        - 
        actionEnabled:
        - 1
        actionIsOpen:
        - 1
        actionStartIndex: 00000000
        actionHashCodes: 4cc8fcef
        unityObjectParams: []
        fsmGameObjectParams: []
        fsmOwnerDefaultParams: []
        animationCurveParams: []
        functionCallParams: []
        fsmTemplateControlParams: []
        fsmEventTargetParams: []
        fsmPropertyParams: []
        layoutOptionParams: []
        fsmStringParams:
        - useVariable: 0
          name: 
          tooltip: 
          showInInspector: 0
          networkSync: 0
          value: 436f6e6e65637420546f2042696c6c696e67
        - useVariable: 0
          name: 
          tooltip: 
          showInInspector: 0
          networkSync: 0
          value: 
        - useVariable: 0
          name: 
          tooltip: 
          showInInspector: 0
          networkSync: 0
          value: 427574746f6e
        fsmObjectParams:
        - useVariable: 0
          name: 
          tooltip: 
          showInInspector: 0
          networkSync: 0
          typeName: 
          value: {fileID: 0}
        fsmVarParams: []
        byteData:
        - 66
        - 117
        - 116
        - 116
        - 111
        - 110
        - 67
        - 108
        - 105
        - 99
        - 107
        - 0
        - 1
        - 0
        - 0
        - 0
        - 0
        - 0
        - 0
        - 0
        - 0
        - 0
        - 0
        - 0
        - 0
        - 0
        - 0
        - 0
        - 0
        - 1
        - 0
        - 0
        - 0
        - 0
        - 0
        - 0
        - 0
        - 0
        - 0
        - 0
        - 154
        - 153
        - 153
        - 62
        - 0
        - 205
        - 204
        - 204
        - 61
        - 0
        - 1
        - 0
        arrayParamSizes: 
        arrayParamTypes: []
        customTypeSizes: 
        customTypeNames: []
        paramDataType: 1700000011000000210000001200000012000000120000001e0000000f0000000f0000000f0000000f00000011000000
        paramName:
        - 73656e644576656e74
        - 73746f7265427574746f6e5374617465
        - 696d616765
        - 74657874
        - 746f6f6c746970
        - 7374796c65
        - 73637265656e52656374
        - 6c656674
        - 746f70
        - 7769647468
        - 686569676874
        - 6e6f726d616c697a6564
        paramDataPos: 000000000b000000000000000000000001000000020000000d0000001e00000023000000280000002d00000032000000
        paramByteDataSize: 0b0000000200000000000000000000000000000000000000110000000500000005000000050000000500000002000000
    - name: 4f6e20436f6e6e656320436c69636b
      description: 
      colorIndex: 0
      position:
        x: 229.00781
        y: 134.91406
        width: 138
        height: 32
      isBreakpoint: 0
      isSequence: 0
      hideUnused: 0
      transitions:
      - fsmEvent:
          name: 42696c6c696e626720436f6e6e6563746564
          isSystemEvent: 0
          isGlobal: 0
        toState: 4765742050726f6475637420496e666f
        linkStyle: 0
        linkConstraint: 0
        colorIndex: 0
      actionData:
        actionNames:
        - 4875746f6e6747616d65732e506c61794d616b65722e416374696f6e732e414e5f696e697442696c6c696e67
        customNames:
        - 
        actionEnabled:
        - 1
        actionIsOpen:
        - 1
        actionStartIndex: 00000000
        actionHashCodes: c631a949
        unityObjectParams: []
        fsmGameObjectParams: []
        fsmOwnerDefaultParams: []
        animationCurveParams: []
        functionCallParams: []
        fsmTemplateControlParams: []
        fsmEventTargetParams: []
        fsmPropertyParams: []
        layoutOptionParams: []
        fsmStringParams: []
        fsmObjectParams: []
        fsmVarParams: []
        byteData:
        - 66
        - 105
        - 108
        - 108
        - 105
        - 110
        - 98
        - 103
        - 32
        - 67
        - 111
        - 110
        - 110
        - 101
        - 99
        - 116
        - 101
        - 100
        arrayParamSizes: 
        arrayParamTypes: []
        customTypeSizes: 
        customTypeNames: []
        paramDataType: 17000000
        paramName:
        - 737563636573734576656e74
        paramDataPos: 00000000
        paramByteDataSize: 12000000
    - name: 4765742050726f6475637420496e666f
      description: 
      colorIndex: 0
      position:
        x: 165.125
        y: 285.09375
        width: 136
        height: 32
      isBreakpoint: 0
      isSequence: 0
      hideUnused: 0
      transitions:
      - fsmEvent:
          name: 50726f64796374496e666f4c6f61646564
          isSystemEvent: 0
          isGlobal: 0
        toState: 50726f64757420496e666f2072657472697664
        linkStyle: 0
        linkConstraint: 0
        colorIndex: 0
      actionData:
        actionNames:
        - 4875746f6e6747616d65732e506c61794d616b65722e416374696f6e732e414e5f5265747269766550726f64756374496e666f
        customNames:
        - 
        actionEnabled:
        - 1
        actionIsOpen:
        - 1
        actionStartIndex: 00000000
        actionHashCodes: 2cf764f7
        unityObjectParams: []
        fsmGameObjectParams: []
        fsmOwnerDefaultParams: []
        animationCurveParams: []
        functionCallParams: []
        fsmTemplateControlParams: []
        fsmEventTargetParams: []
        fsmPropertyParams: []
        layoutOptionParams: []
        fsmStringParams:
        - useVariable: 0
          name: 
          tooltip: 
          showInInspector: 0
          networkSync: 0
          value: 636f696e735f626f6e7573
        - useVariable: 1
          name: 50726f756374205072696365
          tooltip: 
          showInInspector: 0
          networkSync: 0
          value: 
        - useVariable: 0
          name: 
          tooltip: 
          showInInspector: 0
          networkSync: 0
          value: 
        - useVariable: 0
          name: 
          tooltip: 
          showInInspector: 0
          networkSync: 0
          value: 
        - useVariable: 0
          name: 
          tooltip: 
          showInInspector: 0
          networkSync: 0
          value: 
        - useVariable: 0
          name: 
          tooltip: 
          showInInspector: 0
          networkSync: 0
          value: 
        fsmObjectParams: []
        fsmVarParams: []
        byteData:
        - 80
        - 114
        - 111
        - 100
        - 121
        - 99
        - 116
        - 73
        - 110
        - 102
        - 111
        - 76
        - 111
        - 97
        - 100
        - 101
        - 100
        arrayParamSizes: 
        arrayParamTypes: []
        customTypeSizes: 
        customTypeNames: []
        paramDataType: 1200000012000000120000001200000012000000120000001700000017000000
        paramName:
        - 50726f64756374534b55
        - 7072696365
        - 7469746c65
        - 6465736372697074696f6e
        - 7072696365416d6f756e744d6963726f73
        - 707269636543757272656e6379436f6465
        - 737563636573734576656e74
        - 6661696c4576656e74
        paramDataPos: 0000000001000000020000000300000004000000050000000000000011000000
        paramByteDataSize: 0000000000000000000000000000000000000000000000001100000000000000
    - name: 50726f64757420496e666f2072657472697664
      description: 
      colorIndex: 0
      position:
        x: 183
        y: 389
        width: 135
        height: 16
      isBreakpoint: 0
      isSequence: 0
      hideUnused: 0
      transitions: []
      actionData:
        actionNames:
        - 4875746f6e6747616d65732e506c61794d616b65722e416374696f6e732e53657447554954657874
        customNames:
        - 
        actionEnabled:
        - 1
        actionIsOpen:
        - 1
        actionStartIndex: 00000000
        actionHashCodes: ec086d87
        unityObjectParams: []
        fsmGameObjectParams: []
        fsmOwnerDefaultParams:
        - ownerOption: 1
          gameObject:
            useVariable: 0
            name: 
            tooltip: 
            showInInspector: 0
            networkSync: 0
            value: {fileID: 309799593}
        animationCurveParams: []
        functionCallParams: []
        fsmTemplateControlParams: []
        fsmEventTargetParams: []
        fsmPropertyParams: []
        layoutOptionParams: []
        fsmStringParams:
        - useVariable: 1
          name: 50726f756374205072696365
          tooltip: 
          showInInspector: 0
          networkSync: 0
          value: 
        fsmObjectParams: []
        fsmVarParams: []
        byteData:
        - 0
        arrayParamSizes: 
        arrayParamTypes: []
        customTypeSizes: 
        customTypeNames: []
        paramDataType: 140000001200000001000000
        paramName:
        - 67616d654f626a656374
        - 74657874
        - 65766572794672616d65
        paramDataPos: 000000000000000000000000
        paramByteDataSize: 000000000000000001000000
    events:
    - name: 42696c6c696e626720436f6e6e6563746564
      isSystemEvent: 0
      isGlobal: 0
    - name: 427574746f6e436c69636b
      isSystemEvent: 0
      isGlobal: 0
    - name: 50726f64796374496e666f4c6f61646564
      isSystemEvent: 0
      isGlobal: 0
    globalTransitions: []
    variables:
      floatVariables: []
      intVariables: []
      boolVariables: []
      stringVariables:
      - useVariable: 1
        name: 50726f756374205072696365
        tooltip: 
        showInInspector: 0
        networkSync: 0
        value: 
      vector2Variables: []
      vector3Variables: []
      colorVariables: []
      rectVariables: []
      quaternionVariables: []
      gameObjectVariables: []
      objectVariables: []
      materialVariables: []
      textureVariables: []
    description: 
    docUrl: 
    showStateLabel: 1
    maxLoopCount: 0
    watermark: 
    version: 0
    ExposedEvents: []
    RestartOnEnable: 1
    EnableDebugFlow: 0
    StepFrame: 0
    activeStateName: 
  fsmTemplate: {fileID: 0}
--- !u!4 &458913135
Transform:
  m_ObjectHideFlags: 0
  m_PrefabParentObject: {fileID: 0}
  m_PrefabInternal: {fileID: 0}
  m_GameObject: {fileID: 458913133}
  m_LocalRotation: {x: 0, y: 0, z: 0, w: 1}
  m_LocalPosition: {x: -4.0520563, y: 3.8689783, z: 19.309948}
  m_LocalScale: {x: 1, y: 1, z: 1}
  m_Children: []
  m_Father: {fileID: 0}
  m_RootOrder: 0
--- !u!1 &1351793961
GameObject:
  m_ObjectHideFlags: 0
  m_PrefabParentObject: {fileID: 0}
  m_PrefabInternal: {fileID: 0}
  serializedVersion: 4
  m_Component:
  - 4: {fileID: 1351793963}
  - 114: {fileID: 1351793962}
  m_Layer: 0
  m_Name: PlayMakerGUI
  m_TagString: Untagged
  m_Icon: {fileID: 0}
  m_NavMeshLayer: 0
  m_StaticEditorFlags: 0
  m_IsActive: 1
--- !u!114 &1351793962
MonoBehaviour:
  m_ObjectHideFlags: 0
  m_PrefabParentObject: {fileID: 0}
  m_PrefabInternal: {fileID: 0}
  m_GameObject: {fileID: 1351793961}
  m_Enabled: 1
  m_EditorHideFlags: 0
  m_Script: {fileID: -73581967, guid: e743331561ef77147ae48cda9bcb8209, type: 3}
  m_Name: 
  m_EditorClassIdentifier: 
  previewOnGUI: 1
  enableGUILayout: 1
  drawStateLabels: 1
  GUITextureStateLabels: 1
  GUITextStateLabels: 1
  filterLabelsWithDistance: 0
  maxLabelDistance: 10
  controlMouseCursor: 1
--- !u!4 &1351793963
Transform:
  m_ObjectHideFlags: 0
  m_PrefabParentObject: {fileID: 0}
  m_PrefabInternal: {fileID: 0}
  m_GameObject: {fileID: 1351793961}
  m_LocalRotation: {x: 0, y: 0, z: 0, w: 1}
  m_LocalPosition: {x: 0, y: 0, z: 0}
  m_LocalScale: {x: 1, y: 1, z: 1}
  m_Children: []
  m_Father: {fileID: 0}
  m_RootOrder: 3
