%YAML 1.1
%TAG !u! tag:unity3d.com,2011:
--- !u!74 &7400000
AnimationClip:
  m_ObjectHideFlags: 0
  m_PrefabParentObject: {fileID: 0}
  m_PrefabInternal: {fileID: 0}
  m_Name: Shooter
  serializedVersion: 4
  m_AnimationType: 2
  m_Compressed: 0
  m_UseHighQualityCurve: 1
  m_RotationCurves: []
  m_CompressedRotationCurves: []
  m_PositionCurves: []
  m_ScaleCurves: []
  m_FloatCurves: []
  m_PPtrCurves:
  - curve:
    - time: 0
      value: {fileID: 21300000, guid: 9d5bf7632fd380a49bfc097193076c2d, type: 3}
    attribute: m_Sprite
    path: _Shooting_Star
    classID: 212
    script: {fileID: 0}
  - curve:
    - time: 0
      value: {fileID: 21300000, guid: 9d5bf7632fd380a49bfc097193076c2d, type: 3}
    - time: .0166666675
      value: {fileID: 21300002, guid: 9d5bf7632fd380a49bfc097193076c2d, type: 3}
    - time: .0333333351
      value: {fileID: 21300004, guid: 9d5bf7632fd380a49bfc097193076c2d, type: 3}
    - time: .0500000007
      value: {fileID: 21300006, guid: 9d5bf7632fd380a49bfc097193076c2d, type: 3}
    - time: .0666666701
      value: {fileID: 21300008, guid: 9d5bf7632fd380a49bfc097193076c2d, type: 3}
    - time: .0833333358
      value: {fileID: 21300010, guid: 9d5bf7632fd380a49bfc097193076c2d, type: 3}
    - time: .100000001
      value: {fileID: 21300012, guid: 9d5bf7632fd380a49bfc097193076c2d, type: 3}
    - time: .116666667
      value: {fileID: 21300014, guid: 9d5bf7632fd380a49bfc097193076c2d, type: 3}
    - time: .13333334
      value: {fileID: 21300016, guid: 9d5bf7632fd380a49bfc097193076c2d, type: 3}
    - time: .150000006
      value: {fileID: 21300018, guid: 9d5bf7632fd380a49bfc097193076c2d, type: 3}
    - time: .166666672
      value: {fileID: 21300020, guid: 9d5bf7632fd380a49bfc097193076c2d, type: 3}
    - time: .183333337
      value: {fileID: 21300022, guid: 9d5bf7632fd380a49bfc097193076c2d, type: 3}
    - time: .200000003
      value: {fileID: 21300024, guid: 9d5bf7632fd380a49bfc097193076c2d, type: 3}
    - time: .216666669
      value: {fileID: 21300026, guid: 9d5bf7632fd380a49bfc097193076c2d, type: 3}
    - time: .233333334
      value: {fileID: 21300032, guid: 9d5bf7632fd380a49bfc097193076c2d, type: 3}
    - time: .25
      value: {fileID: 21300030, guid: 9d5bf7632fd380a49bfc097193076c2d, type: 3}
    - time: .266666681
      value: {fileID: 21300032, guid: 9d5bf7632fd380a49bfc097193076c2d, type: 3}
    - time: .283333331
      value: {fileID: 21300034, guid: 9d5bf7632fd380a49bfc097193076c2d, type: 3}
    - time: .300000012
      value: {fileID: 21300036, guid: 9d5bf7632fd380a49bfc097193076c2d, type: 3}
    - time: .316666663
      value: {fileID: 21300038, guid: 9d5bf7632fd380a49bfc097193076c2d, type: 3}
    - time: .333333343
      value: {fileID: 21300040, guid: 9d5bf7632fd380a49bfc097193076c2d, type: 3}
    - time: .349999994
      value: {fileID: 21300042, guid: 9d5bf7632fd380a49bfc097193076c2d, type: 3}
    - time: .366666675
      value: {fileID: 21300044, guid: 9d5bf7632fd380a49bfc097193076c2d, type: 3}
    - time: .383333325
      value: {fileID: 21300046, guid: 9d5bf7632fd380a49bfc097193076c2d, type: 3}
    - time: .400000006
      value: {fileID: 21300048, guid: 9d5bf7632fd380a49bfc097193076c2d, type: 3}
    - time: .416666657
      value: {fileID: 21300050, guid: 9d5bf7632fd380a49bfc097193076c2d, type: 3}
    - time: .433333337
      value: {fileID: 21300052, guid: 9d5bf7632fd380a49bfc097193076c2d, type: 3}
    - time: .449999988
      value: {fileID: 21300054, guid: 9d5bf7632fd380a49bfc097193076c2d, type: 3}
    - time: .466666669
      value: {fileID: 21300056, guid: 9d5bf7632fd380a49bfc097193076c2d, type: 3}
    - time: .483333319
      value: {fileID: 21300058, guid: 9d5bf7632fd380a49bfc097193076c2d, type: 3}
    - time: .5
      value: {fileID: 21300060, guid: 9d5bf7632fd380a49bfc097193076c2d, type: 3}
    - time: .516666651
      value: {fileID: 21300062, guid: 9d5bf7632fd380a49bfc097193076c2d, type: 3}
    - time: .533333361
      value: {fileID: 21300064, guid: 9d5bf7632fd380a49bfc097193076c2d, type: 3}
    - time: .550000012
      value: {fileID: 21300066, guid: 9d5bf7632fd380a49bfc097193076c2d, type: 3}
    - time: .566666663
      value: {fileID: 21300068, guid: 9d5bf7632fd380a49bfc097193076c2d, type: 3}
    - time: .583333313
      value: {fileID: 21300070, guid: 9d5bf7632fd380a49bfc097193076c2d, type: 3}
    attribute: m_Sprite
    path: 
    classID: 212
    script: {fileID: 0}
  m_SampleRate: 60
  m_WrapMode: 0
  m_Bounds:
    m_Center: {x: 0, y: 0, z: 0}
    m_Extent: {x: 0, y: 0, z: 0}
  m_ClipBindingConstant:
    genericBindings:
    - path: 2273782233
      attribute: 0
      script: {fileID: 0}
      classID: 212
      customType: 23
      isPPtrCurve: 1
    - path: 0
      attribute: 0
      script: {fileID: 0}
      classID: 212
      customType: 23
      isPPtrCurve: 1
    pptrCurveMapping:
    - {fileID: 21300000, guid: 9d5bf7632fd380a49bfc097193076c2d, type: 3}
    - {fileID: 21300000, guid: 9d5bf7632fd380a49bfc097193076c2d, type: 3}
    - {fileID: 21300002, guid: 9d5bf7632fd380a49bfc097193076c2d, type: 3}
    - {fileID: 21300004, guid: 9d5bf7632fd380a49bfc097193076c2d, type: 3}
    - {fileID: 21300006, guid: 9d5bf7632fd380a49bfc097193076c2d, type: 3}
    - {fileID: 21300008, guid: 9d5bf7632fd380a49bfc097193076c2d, type: 3}
    - {fileID: 21300010, guid: 9d5bf7632fd380a49bfc097193076c2d, type: 3}
    - {fileID: 21300012, guid: 9d5bf7632fd380a49bfc097193076c2d, type: 3}
    - {fileID: 21300014, guid: 9d5bf7632fd380a49bfc097193076c2d, type: 3}
    - {fileID: 21300016, guid: 9d5bf7632fd380a49bfc097193076c2d, type: 3}
    - {fileID: 21300018, guid: 9d5bf7632fd380a49bfc097193076c2d, type: 3}
    - {fileID: 21300020, guid: 9d5bf7632fd380a49bfc097193076c2d, type: 3}
    - {fileID: 21300022, guid: 9d5bf7632fd380a49bfc097193076c2d, type: 3}
    - {fileID: 21300024, guid: 9d5bf7632fd380a49bfc097193076c2d, type: 3}
    - {fileID: 21300026, guid: 9d5bf7632fd380a49bfc097193076c2d, type: 3}
    - {fileID: 21300032, guid: 9d5bf7632fd380a49bfc097193076c2d, type: 3}
    - {fileID: 21300030, guid: 9d5bf7632fd380a49bfc097193076c2d, type: 3}
    - {fileID: 21300032, guid: 9d5bf7632fd380a49bfc097193076c2d, type: 3}
    - {fileID: 21300034, guid: 9d5bf7632fd380a49bfc097193076c2d, type: 3}
    - {fileID: 21300036, guid: 9d5bf7632fd380a49bfc097193076c2d, type: 3}
    - {fileID: 21300038, guid: 9d5bf7632fd380a49bfc097193076c2d, type: 3}
    - {fileID: 21300040, guid: 9d5bf7632fd380a49bfc097193076c2d, type: 3}
    - {fileID: 21300042, guid: 9d5bf7632fd380a49bfc097193076c2d, type: 3}
    - {fileID: 21300044, guid: 9d5bf7632fd380a49bfc097193076c2d, type: 3}
    - {fileID: 21300046, guid: 9d5bf7632fd380a49bfc097193076c2d, type: 3}
    - {fileID: 21300048, guid: 9d5bf7632fd380a49bfc097193076c2d, type: 3}
    - {fileID: 21300050, guid: 9d5bf7632fd380a49bfc097193076c2d, type: 3}
    - {fileID: 21300052, guid: 9d5bf7632fd380a49bfc097193076c2d, type: 3}
    - {fileID: 21300054, guid: 9d5bf7632fd380a49bfc097193076c2d, type: 3}
    - {fileID: 21300056, guid: 9d5bf7632fd380a49bfc097193076c2d, type: 3}
    - {fileID: 21300058, guid: 9d5bf7632fd380a49bfc097193076c2d, type: 3}
    - {fileID: 21300060, guid: 9d5bf7632fd380a49bfc097193076c2d, type: 3}
    - {fileID: 21300062, guid: 9d5bf7632fd380a49bfc097193076c2d, type: 3}
    - {fileID: 21300064, guid: 9d5bf7632fd380a49bfc097193076c2d, type: 3}
    - {fileID: 21300066, guid: 9d5bf7632fd380a49bfc097193076c2d, type: 3}
    - {fileID: 21300068, guid: 9d5bf7632fd380a49bfc097193076c2d, type: 3}
    - {fileID: 21300070, guid: 9d5bf7632fd380a49bfc097193076c2d, type: 3}
  m_AnimationClipSettings:
    serializedVersion: 2
    m_StartTime: 0
    m_StopTime: .933333337
    m_OrientationOffsetY: 0
    m_Level: 0
    m_CycleOffset: 0
    m_LoopTime: 1
    m_LoopBlend: 0
    m_LoopBlendOrientation: 0
    m_LoopBlendPositionY: 0
    m_LoopBlendPositionXZ: 0
    m_KeepOriginalOrientation: 0
    m_KeepOriginalPositionY: 1
    m_KeepOriginalPositionXZ: 0
    m_HeightFromFeet: 0
    m_Mirror: 0
  m_EditorCurves: []
  m_EulerEditorCurves: []
  m_Events:
  - time: .933333337
    functionName: 
    data: 
    objectReferenceParameter: {fileID: 0}
    floatParameter: 0
    intParameter: 0
    messageOptions: 0
